Lab 06 - building a memory hierarchy/part 3/cpu_wavedata.vcd
$date
	Wed Mar 09 10:00:39 2022
$end
$version
	Icarus Verilog
$end
$timescale
	100ps
$end
$scope module cpu_tb $end
$var wire 8 ! ADDRESS [7:0] $end
$var wire 1 " BUSYWAIT $end
$var wire 1 # DCACHE_BUSYWAIT $end
$var wire 1 $ INSTCACHE_BUSYWAIT $end
$var wire 32 % INSTRUCTION [31:0] $end
$var wire 6 & INSTRUCT_ADDRESS [5:0] $end
$var wire 1 ' INSTRUCT_BUSYWAIT $end
$var wire 1 ( INSTRUCT_READ $end
$var wire 128 ) INSTRUCT_READDATA [127:0] $end
$var wire 6 * MEMADDRESS [5:0] $end
$var wire 1 + MEMBUSYWAIT $end
$var wire 32 , MEMREADDATA [31:0] $end
$var wire 1 - MEMRead $end
$var wire 32 . MEMWRITEDATA [31:0] $end
$var wire 1 / MEMWrite $end
$var wire 32 0 PC [31:0] $end
$var wire 8 1 READDATA [7:0] $end
$var wire 1 2 Read $end
$var wire 8 3 WRITEDATA [7:0] $end
$var wire 1 4 Write $end
$var reg 1 5 CLK $end
$var reg 1 6 RESET $end
$scope module mycpu $end
$var wire 8 7 ALURESULT [7:0] $end
$var wire 1 8 AndOut1 $end
$var wire 1 9 AndOut2 $end
$var wire 32 : BRANCHto [31:0] $end
$var wire 1 ; CLK $end
$var wire 32 < INSTRUCTION [31:0] $end
$var wire 8 = NEGATIVE [7:0] $end
$var wire 32 > NEXT [31:0] $end
$var wire 32 ? OFFSET [31:0] $end
$var wire 8 @ OUT1 [7:0] $end
$var wire 8 A OUT2 [7:0] $end
$var wire 8 B OUT3 [7:0] $end
$var wire 8 C OUT4 [7:0] $end
$var wire 1 D OrOut $end
$var wire 32 E PCNEXT [31:0] $end
$var wire 32 F PCbranch [31:0] $end
$var wire 1 G RESET $end
$var wire 8 H RESULT [7:0] $end
$var wire 8 I ReadData [7:0] $end
$var wire 1 " WAIT $end
$var wire 1 J Zero $end
$var reg 3 K DESTINATION [2:0] $end
$var reg 32 L PC [31:0] $end
$var reg 1 M ReadFromMem $end
$var reg 3 N SEL [2:0] $end
$var reg 3 O SOURCE1 [2:0] $end
$var reg 3 P SOURCE2 [2:0] $end
$var reg 2 Q ShiftSEL [1:0] $end
$var reg 1 R WRITE $end
$var reg 1 S WriteToMem $end
$var reg 1 T isBRANCH $end
$var reg 1 U isIMMEDIATE $end
$var reg 1 V isJUMP $end
$var reg 1 W isMem $end
$var reg 1 X isNEGATIVE $end
$var reg 1 Y isNotEqlBRANCH $end
$scope module a1 $end
$var wire 32 Z IN [31:0] $end
$var wire 32 [ OUT [31:0] $end
$upscope $end
$scope module a2 $end
$var wire 1 ; CLK $end
$var wire 8 \ IN [7:0] $end
$var wire 3 ] INADDRESS [2:0] $end
$var wire 8 ^ OUT1 [7:0] $end
$var wire 3 _ OUT1ADDRESS [2:0] $end
$var wire 8 ` OUT2 [7:0] $end
$var wire 3 a OUT2ADDRESS [2:0] $end
$var wire 1 G RESET $end
$var wire 1 b WRITE $end
$var integer 32 c i [31:0] $end
$upscope $end
$scope module t1 $end
$var wire 8 d DATA [7:0] $end
$var wire 8 e OUT [7:0] $end
$upscope $end
$scope module m1 $end
$var wire 8 f IN1 [7:0] $end
$var wire 8 g IN2 [7:0] $end
$var wire 1 h SELECT $end
$var reg 8 i OUT [7:0] $end
$upscope $end
$scope module m2 $end
$var wire 8 j IN1 [7:0] $end
$var wire 8 k IN2 [7:0] $end
$var wire 1 l SELECT $end
$var reg 8 m OUT [7:0] $end
$upscope $end
$scope module a3 $end
$var wire 8 n DATA1 [7:0] $end
$var wire 8 o DATA2 [7:0] $end
$var wire 3 p SELECT [2:0] $end
$var wire 2 q ShiftOp [1:0] $end
$var wire 8 r a [7:0] $end
$var wire 8 s b [7:0] $end
$var wire 8 t c [7:0] $end
$var wire 8 u d [7:0] $end
$var wire 8 v e [7:0] $end
$var wire 8 w f [7:0] $end
$var reg 8 x RESULT [7:0] $end
$var reg 1 y ZERO $end
$scope module ins1 $end
$var wire 8 z DATA [7:0] $end
$var wire 8 { OUT [7:0] $end
$upscope $end
$scope module ins2 $end
$var wire 8 | DATA1 [7:0] $end
$var wire 8 } DATA2 [7:0] $end
$var wire 8 ~ OUT [7:0] $end
$upscope $end
$scope module ins5 $end
$var wire 8 !" DATA1 [7:0] $end
$var wire 8 "" DATA2 [7:0] $end
$var wire 8 #" OUT [7:0] $end
$upscope $end
$scope module ins6 $end
$var wire 8 $" DATA1 [7:0] $end
$var wire 8 %" DATA2 [7:0] $end
$var wire 8 &" OUT [7:0] $end
$upscope $end
$scope module ins7 $end
$var wire 8 '" DATA [7:0] $end
$var wire 8 (" ShiftValue [7:0] $end
$var wire 2 )" shiftOP [1:0] $end
$var reg 8 *" OUT [7:0] $end
$upscope $end
$scope module ins8 $end
$var wire 8 +" DATA1 [7:0] $end
$var wire 8 ," DATA2 [7:0] $end
$var wire 8 -" OUT [7:0] $end
$var wire 8 ." p0 [7:0] $end
$var wire 8 /" p1 [7:0] $end
$var wire 8 0" p2 [7:0] $end
$var wire 8 1" p3 [7:0] $end
$var wire 8 2" p4 [7:0] $end
$var wire 8 3" p5 [7:0] $end
$var wire 8 4" p6 [7:0] $end
$var wire 8 5" p7 [7:0] $end
$upscope $end
$upscope $end
$scope module a4 $end
$var wire 1 J IN1 $end
$var wire 1 6" IN2 $end
$var wire 1 8 OUT $end
$upscope $end
$scope module a5 $end
$var wire 1 7" IN1 $end
$var wire 1 8" IN2 $end
$var wire 1 9 OUT $end
$upscope $end
$scope module o1 $end
$var wire 1 8 IN1 $end
$var wire 1 9 IN2 $end
$var wire 1 D OUT $end
$upscope $end
$scope module m3 $end
$var wire 32 9" IN1 [31:0] $end
$var wire 32 :" IN2 [31:0] $end
$var wire 1 D SELECT $end
$var reg 32 ;" OUT [31:0] $end
$upscope $end
$scope module b1 $end
$var wire 32 <" in [31:0] $end
$var wire 32 =" out [31:0] $end
$var wire 32 >" pcNext [31:0] $end
$upscope $end
$scope module m4 $end
$var wire 32 ?" IN1 [31:0] $end
$var wire 32 @" IN2 [31:0] $end
$var wire 1 A" SELECT $end
$var reg 32 B" OUT [31:0] $end
$upscope $end
$scope module f1 $end
$var wire 8 C" IN [7:0] $end
$var wire 32 D" OUT [31:0] $end
$upscope $end
$scope module m5 $end
$var wire 8 E" IN1 [7:0] $end
$var wire 8 F" IN2 [7:0] $end
$var wire 1 G" SELECT $end
$var reg 8 H" OUT [7:0] $end
$upscope $end
$upscope $end
$scope module d1 $end
$var wire 6 I" address [5:0] $end
$var wire 1 ; clock $end
$var wire 1 ( read $end
$var reg 1 J" busywait $end
$var reg 1 K" readaccess $end
$var reg 128 L" readinst [127:0] $end
$upscope $end
$scope module ich $end
$var wire 1 ; clock $end
$var wire 1 M" hit $end
$var wire 3 N" index [2:0] $end
$var wire 1 ' instrMem_busywait $end
$var wire 128 O" instrMem_readdata [127:0] $end
$var wire 32 P" instruction [31:0] $end
$var wire 8 Q" pc_address [7:0] $end
$var wire 1 G reset $end
$var wire 1 R" tagMatch $end
$var reg 1 S" busywait $end
$var reg 128 T" cache_data [127:0] $end
$var reg 1 U" cache_update $end
$var integer 32 V" i [31:0] $end
$var reg 6 W" instrMem_address [5:0] $end
$var reg 1 X" instrMem_read $end
$var reg 3 Y" next_state [2:0] $end
$var reg 3 Z" state [2:0] $end
$var reg 3 [" tag [2:0] $end
$var reg 1 \" valid $end
$scope module compareTag $end
$var wire 3 ]" IN1 [2:0] $end
$var wire 3 ^" IN2 [2:0] $end
$var wire 1 R" OUT $end
$var wire 1 _" w0 $end
$var wire 1 `" w1 $end
$var wire 1 a" w2 $end
$upscope $end
$scope module gate1 $end
$var wire 1 R" IN1 $end
$var wire 1 b" IN2 $end
$var wire 1 M" OUT $end
$upscope $end
$upscope $end
$scope module d2 $end
$var wire 6 c" address [5:0] $end
$var wire 1 ; clock $end
$var wire 1 - read $end
$var wire 1 G reset $end
$var wire 1 / write $end
$var wire 32 d" writedata [31:0] $end
$var reg 1 e" busywait $end
$var integer 32 f" i [31:0] $end
$var reg 1 g" readaccess $end
$var reg 32 h" readdata [31:0] $end
$var reg 1 i" writeaccess $end
$upscope $end
$scope module ch $end
$var wire 8 j" address [7:0] $end
$var wire 1 ; clock $end
$var wire 1 k" eql $end
$var wire 1 l" hit $end
$var wire 1 + mem_busywait $end
$var wire 32 m" mem_readdata [31:0] $end
$var wire 1 2 read $end
$var wire 1 G reset $end
$var wire 1 4 write $end
$var wire 8 n" writedata [7:0] $end
$var reg 3 o" address_tag [2:0] $end
$var reg 32 p" block [31:0] $end
$var reg 1 q" busywait $end
$var reg 1 r" cache_update $end
$var reg 1 s" dirty $end
$var reg 3 t" index [2:0] $end
$var integer 32 u" j [31:0] $end
$var reg 6 v" mem_address [5:0] $end
$var reg 1 w" mem_read $end
$var reg 1 x" mem_write $end
$var reg 32 y" mem_writedata [31:0] $end
$var reg 3 z" next_state [2:0] $end
$var reg 2 {" offset [1:0] $end
$var reg 1 |" readaccess $end
$var reg 8 }" readdata [7:0] $end
$var reg 3 ~" state [2:0] $end
$var reg 3 !# tag [2:0] $end
$var reg 1 "# valid $end
$var reg 1 ## writeaccess $end
$scope module c1 $end
$var wire 3 $# IN1 [2:0] $end
$var wire 3 %# IN2 [2:0] $end
$var wire 1 k" OUT $end
$var wire 1 &# w0 $end
$var wire 1 '# w1 $end
$var wire 1 (# w2 $end
$upscope $end
$scope module ag $end
$var wire 1 k" IN1 $end
$var wire 1 )# IN2 $end
$var wire 1 l" OUT $end
$upscope $end
$upscope $end
$upscope $end
$enddefinitions $end
#0
$dumpvars
x)#
x(#
x'#
x&#
bx %#
bx $#
x##
x"#
bx !#
bx ~"
bx }"
x|"
bx {"
bx z"
bx y"
xx"
xw"
bx v"
bx u"
bx t"
xs"
xr"
xq"
bx p"
bx o"
bx n"
bx m"
xl"
xk"
bx j"
xi"
bx h"
xg"
bx f"
xe"
bx d"
bx c"
xb"
xa"
x`"
x_"
bx ^"
bx ]"
x\"
bx ["
bx Z"
bx Y"
xX"
bx W"
bx V"
xU"
bx T"
1S"
xR"
bx Q"
bx P"
bx O"
bx N"
xM"
bx L"
0K"
0J"
bx I"
bx H"
xG"
bx F"
bx E"
bx00 D"
bx C"
bx B"
xA"
bx @"
bx ?"
bx >"
bx ="
bx00 <"
bx ;"
bx :"
bx 9"
x8"
x7"
x6"
bx0000000 5"
bx000000 4"
bx00000 3"
bx0000 2"
bx000 1"
bx00 0"
bx0 /"
bx ."
bx -"
bx ,"
bx +"
bx *"
bx )"
bx ("
bx '"
bx &"
bx %"
bx $"
bx #"
bx ""
bx !"
bx ~
bx }
bx |
bx {
bx z
xy
bx x
bx w
bx v
bx u
bx t
bx s
bx r
bx q
bx p
bx o
bx n
bx m
xl
bx k
bx j
bx i
xh
bx g
bx f
bx e
bx d
bx c
0b
bx a
bx `
bx _
bx ^
bx ]
bx \
bx [
bx Z
xY
xX
xW
xV
xU
xT
xS
xR
bx Q
bx P
bx O
bx N
xM
bx L
bx K
xJ
bx I
bx H
0G
bx F
bx E
xD
bx C
bx B
bx A
bx @
bx00 ?
bx >
bx =
bx <
0;
bx :
x9
x8
bx 7
06
05
x4
bx 3
x2
bx 1
bx 0
x/
bx .
x-
bx ,
x+
bx *
bx )
x(
0'
bx &
bx %
1$
x#
1"
bx !
$end
#20
0##
0|"
0S
04
0M
02
xb
0r"
0x"
0/
0w"
0-
0"
0U"
0X"
0(
b0 Y"
b0 z"
0q"
0#
b0 ~"
0S"
0$
b0 Z"
0i"
0g"
0e"
0+
b100000000 f"
16
1G
#30
b1000 u"
b1000 V"
#40
15
1;
#50
0b
1"
1S"
1$
b0 ^"
b0 Q"
b1000 V"
b1000 u"
b1000 c
b0 L
b0 0
b0 Z
#60
b0 N"
b100 >
b100 [
b100 :"
b100 >"
06
0G
#70
b1 Y"
1_"
1`"
1a"
0M"
0\"
0b"
b0 ["
b0 ]"
b0 T"
#79
1R"
#80
b0 ?
b0 <"
b0 D"
b0 C"
b0 j
b0 P
b0 a
b0 O
b0 _
b0 K
b0 ]
b0 %
b0 <
b0 P"
05
0;
#90
b100 B"
b100 E
b0 /"
b0 0"
b0 1"
b0 2"
b0 3"
b0 4"
b0 5"
b0 ."
b100 ;"
b100 F
b100 @"
b0 m
b0 C
b0 o
b0 z
b0 }
b0 ""
b0 %"
b0 ("
b0 ,"
0D
09
bx x
08
0W
0G"
0Y
08"
b0 N
b0 p
0T
06"
0V
0A"
1U
1l
0X
0h
1R
#100
b0 H"
b0 H
b0 \
b0 i
b0 B
b0 k
b0 w
b0 -"
b0 t
b0 #"
b0 r
b0 {
b0 x
b0 !
b0 7
b0 F"
b0 j"
b100 :
b100 9"
b100 ="
b100 ?"
b0 A
b0 `
b0 d
b0 g
b0 3
b0 @
b0 ^
b0 n
b0 |
b0 !"
b0 $"
b0 '"
b0 +"
b0 n"
#110
b0 =
b0 e
b0 f
b0 u
b0 &"
#120
1K"
1J"
1'
07"
b0 W"
b0 &
b0 I"
1X"
1(
b1 Y"
1y
1J
b1 Z"
b0 s
b0 ~
15
1;
#160
05
0;
#200
15
1;
#240
05
0;
#280
15
1;
#320
05
0;
#360
15
1;
#400
05
0;
#440
15
1;
#480
05
0;
#520
15
1;
#560
05
0;
#600
15
1;
bx00000101 L"
bx00000101 )
bx00000101 O"
#640
05
0;
#680
15
1;
#720
05
0;
#760
15
1;
#800
05
0;
#840
15
1;
#880
05
0;
#920
15
1;
#960
05
0;
#1000
15
1;
bx0000000000000101 L"
bx0000000000000101 )
bx0000000000000101 O"
#1040
05
0;
#1080
15
1;
#1120
05
0;
#1160
15
1;
#1200
05
0;
#1240
15
1;
#1280
05
0;
#1320
15
1;
#1360
05
0;
#1400
15
1;
bx000001000000000000000101 L"
bx000001000000000000000101 )
bx000001000000000000000101 O"
#1440
05
0;
#1480
15
1;
#1520
05
0;
#1560
15
1;
#1600
05
0;
#1640
15
1;
#1680
05
0;
#1720
15
1;
#1760
05
0;
#1800
15
1;
bx00000000000001000000000000000101 L"
bx00000000000001000000000000000101 )
bx00000000000001000000000000000101 O"
#1840
05
0;
#1880
15
1;
#1920
05
0;
#1960
15
1;
#2000
05
0;
#2040
15
1;
#2080
05
0;
#2120
15
1;
#2160
05
0;
#2200
15
1;
bx0000100100000000000001000000000000000101 L"
bx0000100100000000000001000000000000000101 )
bx0000100100000000000001000000000000000101 O"
#2240
05
0;
#2280
15
1;
#2320
05
0;
#2360
15
1;
#2400
05
0;
#2440
15
1;
#2480
05
0;
#2520
15
1;
#2560
05
0;
#2600
15
1;
bx000000000000100100000000000001000000000000000101 L"
bx000000000000100100000000000001000000000000000101 )
bx000000000000100100000000000001000000000000000101 O"
#2640
05
0;
#2680
15
1;
#2720
05
0;
#2760
15
1;
#2800
05
0;
#2840
15
1;
#2880
05
0;
#2920
15
1;
#2960
05
0;
#3000
15
1;
bx00000010000000000000100100000000000001000000000000000101 L"
bx00000010000000000000100100000000000001000000000000000101 )
bx00000010000000000000100100000000000001000000000000000101 O"
#3040
05
0;
#3080
15
1;
#3120
05
0;
#3160
15
1;
#3200
05
0;
#3240
15
1;
#3280
05
0;
#3320
15
1;
#3360
05
0;
#3400
15
1;
bx0000000000000010000000000000100100000000000001000000000000000101 L"
bx0000000000000010000000000000100100000000000001000000000000000101 )
bx0000000000000010000000000000100100000000000001000000000000000101 O"
#3440
05
0;
#3480
15
1;
#3520
05
0;
#3560
15
1;
#3600
05
0;
#3640
15
1;
#3680
05
0;
#3720
15
1;
#3760
05
0;
#3800
15
1;
bx000000100000000000000010000000000000100100000000000001000000000000000101 L"
bx000000100000000000000010000000000000100100000000000001000000000000000101 )
bx000000100000000000000010000000000000100100000000000001000000000000000101 O"
#3840
05
0;
#3880
15
1;
#3920
05
0;
#3960
15
1;
#4000
05
0;
#4040
15
1;
#4080
05
0;
#4120
15
1;
#4160
05
0;
#4200
15
1;
bx00000100000000100000000000000010000000000000100100000000000001000000000000000101 L"
bx00000100000000100000000000000010000000000000100100000000000001000000000000000101 )
bx00000100000000100000000000000010000000000000100100000000000001000000000000000101 O"
#4240
05
0;
#4280
15
1;
#4320
05
0;
#4360
15
1;
#4400
05
0;
#4440
15
1;
#4480
05
0;
#4520
15
1;
#4560
05
0;
#4600
15
1;
bx0000011000000100000000100000000000000010000000000000100100000000000001000000000000000101 L"
bx0000011000000100000000100000000000000010000000000000100100000000000001000000000000000101 )
bx0000011000000100000000100000000000000010000000000000100100000000000001000000000000000101 O"
#4640
05
0;
#4680
15
1;
#4720
05
0;
#4760
15
1;
#4800
05
0;
#4840
15
1;
#4880
05
0;
#4920
15
1;
#4960
05
0;
#5000
15
1;
bx000000100000011000000100000000100000000000000010000000000000100100000000000001000000000000000101 L"
bx000000100000011000000100000000100000000000000010000000000000100100000000000001000000000000000101 )
bx000000100000011000000100000000100000000000000010000000000000100100000000000001000000000000000101 O"
#5040
05
0;
#5080
15
1;
#5120
05
0;
#5160
15
1;
#5200
05
0;
#5240
15
1;
#5280
05
0;
#5320
15
1;
#5360
05
0;
#5400
15
1;
bx00000111000000100000011000000100000000100000000000000010000000000000100100000000000001000000000000000101 L"
bx00000111000000100000011000000100000000100000000000000010000000000000100100000000000001000000000000000101 )
bx00000111000000100000011000000100000000100000000000000010000000000000100100000000000001000000000000000101 O"
#5440
05
0;
#5480
15
1;
#5520
05
0;
#5560
15
1;
#5600
05
0;
#5640
15
1;
#5680
05
0;
#5720
15
1;
#5760
05
0;
#5800
15
1;
bx0000000000000111000000100000011000000100000000100000000000000010000000000000100100000000000001000000000000000101 L"
bx0000000000000111000000100000011000000100000000100000000000000010000000000000100100000000000001000000000000000101 )
bx0000000000000111000000100000011000000100000000100000000000000010000000000000100100000000000001000000000000000101 O"
#5840
05
0;
#5880
15
1;
#5920
05
0;
#5960
15
1;
#6000
05
0;
#6040
15
1;
#6080
05
0;
#6120
15
1;
#6160
05
0;
#6200
15
1;
bx000000010000000000000111000000100000011000000100000000100000000000000010000000000000100100000000000001000000000000000101 L"
bx000000010000000000000111000000100000011000000100000000100000000000000010000000000000100100000000000001000000000000000101 )
bx000000010000000000000111000000100000011000000100000000100000000000000010000000000000100100000000000001000000000000000101 O"
#6240
05
0;
#6280
15
1;
#6320
05
0;
#6360
15
1;
#6400
05
0;
#6440
15
1;
#6480
05
0;
#6520
15
1;
#6560
05
0;
#6600
1U"
bx W"
bx &
bx I"
0X"
0(
b10 Z"
b0 Y"
15
1;
0K"
0J"
0'
b10000000000000111000000100000011000000100000000100000000000000010000000000000100100000000000001000000000000000101 L"
b10000000000000111000000100000011000000100000000100000000000000010000000000000100100000000000001000000000000000101 )
b10000000000000111000000100000011000000100000000100000000000000010000000000000100100000000000001000000000000000101 O"
#6620
1M"
1\"
1b"
b10000000000000111000000100000011000000100000000100000000000000010000000000000100100000000000001000000000000000101 T"
#6630
b0 x
b101 m
b101 C
b101 o
b101 z
b101 }
b101 ""
b101 %"
b101 ("
b101 ,"
b10000 ?
b10000 <"
b10000 D"
b100 C"
b101 j
b101 P
b101 a
b100 K
b100 ]
b1000000000000000101 %
b1000000000000000101 <
b1000000000000000101 P"
#6640
b101 H"
b101 H
b101 \
b101 u
b101 &"
b101 r
b101 {
b101 x
b101 !
b101 7
b101 F"
b101 j"
05
0;
#6650
17"
0y
0J
b101 s
b101 ~
b10100 :
b10100 9"
b10100 ="
b10100 ?"
#6680
0U"
b0 Z"
15
1;
#6690
1b
0"
0S"
0$
#6720
05
0;
#6760
15
1;
#6770
0b
1"
1S"
1$
b1 Q"
b100 L
b100 0
b100 Z
#6780
b1000 B"
b1000 E
b101 x
b1001 m
b1001 C
b1001 o
b1001 z
b1001 }
b1001 ""
b1001 %"
b1001 ("
b1001 ,"
b1000 ;"
b1000 F
b1000 @"
b1000 ?
b1000 <"
b1000 D"
b10 C"
b1001 j
b1 P
b1 a
b10 K
b10 ]
b100000000000001001 %
b100000000000001001 <
b100000000000001001 P"
b1000 >
b1000 [
b1000 :"
b1000 >"
#6790
b1001 H"
b1001 H
b1001 \
b1001 u
b1001 &"
b1001 r
b1001 {
b1001 x
b1001 !
b1001 7
b1001 F"
b1001 j"
#6800
b1001 s
b1001 ~
b10000 :
b10000 9"
b10000 ="
b10000 ?"
05
0;
#6840
15
1;
#6850
1b
0"
0S"
0$
#6880
05
0;
#6920
15
1;
#6930
0b
1"
1S"
1$
b10 Q"
b1000 L
b1000 0
b1000 Z
#6940
b1100 B"
b1100 E
b1001 x
b10 m
b10 C
b10 o
b10 z
b10 }
b10 ""
b10 %"
b10 ("
b10 ,"
b1100 ;"
b1100 F
b1100 @"
b11000 ?
b11000 <"
b11000 D"
b110 C"
b10 j
b10 P
b10 a
b100 O
b100 _
b110 K
b110 ]
b10000001100000010000000010 %
b10000001100000010000000010 <
b10000001100000010000000010 P"
b1100 >
b1100 [
b1100 :"
b1100 >"
#6950
b0 m
b0 C
b0 o
b0 z
b0 }
b0 ""
b0 %"
b0 ("
b0 ,"
b10 u
b10 &"
b10 r
b10 {
b1001 x
b1001 !
b1001 7
b1001 F"
b1001 j"
b1 N
b1 p
0U
0l
#6960
b101000 1"
b101 ."
b1001 m
b1001 C
b1001 o
b1001 z
b1001 }
b1001 ""
b1001 %"
b1001 ("
b1001 ,"
b1001 i
b1001 B
b1001 k
b1001 x
b0 u
b0 &"
b0 r
b0 {
b1001 A
b1001 `
b1001 d
b1001 g
b101 3
b101 @
b101 ^
b101 n
b101 |
b101 !"
b101 $"
b101 '"
b101 +"
b101 n"
b100100 :
b100100 9"
b100100 ="
b100100 ?"
05
0;
#6970
b101101 w
b101101 -"
b1 t
b1 #"
b1001 r
b1001 {
b11110111 =
b11110111 e
b11110111 f
b1101 u
b1101 &"
#6980
b1110 H"
b1110 H
b1110 \
b1110 s
b1110 ~
b1110 x
b1110 !
b1110 7
b1110 F"
b1110 j"
#7000
15
1;
#7010
1b
0"
0S"
0$
#7040
05
0;
#7080
15
1;
#7090
0b
1"
1S"
1$
b11 Q"
b1100 L
b1100 0
b1100 Z
#7100
b10000 B"
b10000 E
b10000 ;"
b10000 F
b10000 @"
b100 ?
b100 <"
b100 D"
b1 C"
b111 j
b111 P
b111 a
b0 O
b0 _
b1 K
b1 ]
b10000000000000111 %
b10000000000000111 <
b10000000000000111 P"
b10000 >
b10000 [
b10000 :"
b10000 >"
#7110
b1010 /"
b10100 0"
b0 1"
b1001 H"
b1001 H
b1001 \
b111 m
b111 C
b111 o
b111 z
b111 }
b111 ""
b111 %"
b111 ("
b111 ,"
b1001 x
b1001 !
b1001 7
b1001 F"
b1001 j"
b0 N
b0 p
1U
1l
#7120
b111 H"
b111 H
b111 \
b0 i
b0 B
b0 k
b0 /"
b0 0"
b0 ."
b100011 w
b100011 -"
b101 t
b101 #"
b111 u
b111 &"
b111 r
b111 {
b111 x
b111 !
b111 7
b111 F"
b111 j"
b0 A
b0 `
b0 d
b0 g
b0 3
b0 @
b0 ^
b0 n
b0 |
b0 !"
b0 $"
b0 '"
b0 +"
b0 n"
b10100 :
b10100 9"
b10100 ="
b10100 ?"
05
0;
#7130
b0 =
b0 e
b0 f
b0 t
b0 #"
b0 w
b0 -"
#7140
b111 s
b111 ~
#7160
15
1;
#7170
1b
0"
0S"
0$
#7200
05
0;
#7240
15
1;
#7250
0b
1"
1S"
1$
b100 Q"
b10000 L
b10000 0
b10000 Z
#7260
b10100 B"
b10100 E
b111 x
b101 m
b101 C
b101 o
b101 z
b101 }
b101 ""
b101 %"
b101 ("
b101 ,"
b10100 ;"
b10100 F
b10100 @"
b10000 ?
b10000 <"
b10000 D"
b100 C"
b101 j
b101 P
b101 a
b100 K
b100 ]
b1000000000000000101 %
b1000000000000000101 <
b1000000000000000101 P"
b1 N"
b10100 >
b10100 [
b10100 :"
b10100 >"
#7270
b101 H"
b101 H
b101 \
b1 Y"
0M"
b101 u
b101 &"
b101 r
b101 {
b101 x
b101 !
b101 7
b101 F"
b101 j"
0\"
0b"
b0 T"
#7280
b101 x
b0 m
b0 C
b0 o
b0 z
b0 }
b0 ""
b0 %"
b0 ("
b0 ,"
b0 ?
b0 <"
b0 D"
b0 C"
b0 j
b0 P
b0 a
b0 K
b0 ]
b0 %
b0 <
b0 P"
b101 s
b101 ~
b100100 :
b100100 9"
b100100 ="
b100100 ?"
05
0;
#7290
b0 H"
b0 H
b0 \
b0 u
b0 &"
b0 r
b0 {
b0 x
b0 !
b0 7
b0 F"
b0 j"
#7300
07"
1y
1J
b0 s
b0 ~
b10100 :
b10100 9"
b10100 ="
b10100 ?"
#7320
1K"
1J"
1'
b1 W"
b1 &
b1 I"
1X"
1(
b1 Y"
b1 Z"
15
1;
#7360
05
0;
#7400
15
1;
#7440
05
0;
#7480
15
1;
#7520
05
0;
#7560
15
1;
#7600
05
0;
#7640
15
1;
#7680
05
0;
#7720
15
1;
#7760
05
0;
#7800
15
1;
b10000000000000111000000100000011000000100000000100000000000000010000000000000100100000000000001000000000000000100 L"
b10000000000000111000000100000011000000100000000100000000000000010000000000000100100000000000001000000000000000100 )
b10000000000000111000000100000011000000100000000100000000000000010000000000000100100000000000001000000000000000100 O"
#7840
05
0;
#7880
15
1;
#7920
05
0;
#7960
15
1;
#8000
05
0;
#8040
15
1;
#8080
05
0;
#8120
15
1;
#8160
05
0;
#8200
15
1;
b10000000000000111000000100000011000000100000000100000000000000010000000000000100100000000000001000000000100000100 L"
b10000000000000111000000100000011000000100000000100000000000000010000000000000100100000000000001000000000100000100 )
b10000000000000111000000100000011000000100000000100000000000000010000000000000100100000000000001000000000100000100 O"
#8240
05
0;
#8280
15
1;
#8320
05
0;
#8360
15
1;
#8400
05
0;
#8440
15
1;
#8480
05
0;
#8520
15
1;
#8560
05
0;
#8600
15
1;
b10000000000000111000000100000011000000100000000100000000000000010000000000000100100000000000000010000000100000100 L"
b10000000000000111000000100000011000000100000000100000000000000010000000000000100100000000000000010000000100000100 )
b10000000000000111000000100000011000000100000000100000000000000010000000000000100100000000000000010000000100000100 O"
#8640
05
0;
#8680
15
1;
#8720
05
0;
#8760
15
1;
#8800
05
0;
#8840
15
1;
#8880
05
0;
#8920
15
1;
#8960
05
0;
#9000
15
1;
b10000000000000111000000100000011000000100000000100000000000000010000000000000100100000011000000010000000100000100 L"
b10000000000000111000000100000011000000100000000100000000000000010000000000000100100000011000000010000000100000100 )
b10000000000000111000000100000011000000100000000100000000000000010000000000000100100000011000000010000000100000100 O"
#9040
05
0;
#9080
15
1;
#9120
05
0;
#9160
15
1;
#9200
05
0;
#9240
15
1;
#9280
05
0;
#9320
15
1;
#9360
05
0;
#9400
15
1;
b10000000000000111000000100000011000000100000000100000000000000010000000000000001000000011000000010000000100000100 L"
b10000000000000111000000100000011000000100000000100000000000000010000000000000001000000011000000010000000100000100 )
b10000000000000111000000100000011000000100000000100000000000000010000000000000001000000011000000010000000100000100 O"
#9440
05
0;
#9480
15
1;
#9520
05
0;
#9560
15
1;
#9600
05
0;
#9640
15
1;
#9680
05
0;
#9720
15
1;
#9760
05
0;
#9800
15
1;
b10000000000000111000000100000011000000100000000100000000000000010000001000000001000000011000000010000000100000100 L"
b10000000000000111000000100000011000000100000000100000000000000010000001000000001000000011000000010000000100000100 )
b10000000000000111000000100000011000000100000000100000000000000010000001000000001000000011000000010000000100000100 O"
#9840
05
0;
#9880
15
1;
#9920
05
0;
#9960
15
1;
#10000
05
0;
#10040
15
1;
#10080
05
0;
#10120
15
1;
#10160
05
0;
#10200
15
1;
b10000000000000111000000100000011000000100000000100000000000000000000001000000001000000011000000010000000100000100 L"
b10000000000000111000000100000011000000100000000100000000000000000000001000000001000000011000000010000000100000100 )
b10000000000000111000000100000011000000100000000100000000000000000000001000000001000000011000000010000000100000100 O"
#10240
05
0;
#10280
15
1;
#10320
05
0;
#10360
15
1;
#10400
05
0;
#10440
15
1;
#10480
05
0;
#10520
15
1;
#10560
05
0;
#10600
15
1;
b10000000000000111000000100000011000000100000000100000101100000000000001000000001000000011000000010000000100000100 L"
b10000000000000111000000100000011000000100000000100000101100000000000001000000001000000011000000010000000100000100 )
b10000000000000111000000100000011000000100000000100000101100000000000001000000001000000011000000010000000100000100 O"
#10640
05
0;
#10680
15
1;
#10720
05
0;
#10760
15
1;
#10800
05
0;
#10840
15
1;
#10880
05
0;
#10920
15
1;
#10960
05
0;
#11000
15
1;
b10000000000000111000000100000011000000100000000010000101100000000000001000000001000000011000000010000000100000100 L"
b10000000000000111000000100000011000000100000000010000101100000000000001000000001000000011000000010000000100000100 )
b10000000000000111000000100000011000000100000000010000101100000000000001000000001000000011000000010000000100000100 O"
#11040
05
0;
#11080
15
1;
#11120
05
0;
#11160
15
1;
#11200
05
0;
#11240
15
1;
#11280
05
0;
#11320
15
1;
#11360
05
0;
#11400
15
1;
b10000000000000111000000100000011000000000000000010000101100000000000001000000001000000011000000010000000100000100 L"
b10000000000000111000000100000011000000000000000010000101100000000000001000000001000000011000000010000000100000100 )
b10000000000000111000000100000011000000000000000010000101100000000000001000000001000000011000000010000000100000100 O"
#11440
05
0;
#11480
15
1;
#11520
05
0;
#11560
15
1;
#11600
05
0;
#11640
15
1;
#11680
05
0;
#11720
15
1;
#11760
05
0;
#11800
15
1;
b10000000000000111000000100000011100000000000000010000101100000000000001000000001000000011000000010000000100000100 L"
b10000000000000111000000100000011100000000000000010000101100000000000001000000001000000011000000010000000100000100 )
b10000000000000111000000100000011100000000000000010000101100000000000001000000001000000011000000010000000100000100 O"
#11840
05
0;
#11880
15
1;
#11920
05
0;
#11960
15
1;
#12000
05
0;
#12040
15
1;
#12080
05
0;
#12120
15
1;
#12160
05
0;
